<?xml version="1.0"?>
<robot name="blue_block">
  
  <link name="blue_block">
    <visual>
      <origin xyz="0.0 0.0 0.0"/>
      <geometry>
        <mesh filename="blue_block.stl"/>
      </geometry>
    </visual>
    <collision>
      <origin xyz="0.0 0.0 0.0"/>
      <geometry>
        <mesh filename="blue_block.stl"/>
      </geometry>
    </collision>
    <inertial>
      <mass value="0.08"/> <!-- Weighed blue block (Melissa & Doug)-->
      <!-- Note inertia values and COM are re-computed in Isaac Gym -->
      <inertia ixx="0.1" ixy="0.0" ixz="0.0" iyy="0.1" iyz="0.0" izz="0.1"/>
    </inertial>
  </link>
  
</robot>
