<?xml version="1.0"?>
<robot name="cylinder">

  <!-- The extents come from measuring the Stapled dry-erase wipes container -->

  <!-- Can re-generate STL:
       
       import trimesh
       m = trimesh.creation.cylinder(0.041, 0.203, sections=100)
       m.show()  # Visualize it if you want
       m.export('cylinder.stl')

  -->
  
  <link name="cylinder">
    <visual>
      <geometry>
        <mesh filename="cylinder.stl"/>
      </geometry>
    </visual>
    <collision>
      <geometry>
        <mesh filename="cylinder.stl"/>
      </geometry>
    </collision>
    <inertial>
      <!-- Note the inertia values and COM are computed in Isaac Gym -->
      <mass value="0.1"/>
      <inertia ixx="0.1" ixy="0.0" ixz="0.0" iyy="0.1" iyz="0.0" izz="0.1"/>
    </inertial>
  </link>
  
</robot>
