<?xml version="1.0"?>
<robot name="drill">

  <!-- Note the inertia values and COM are not accurate, however they get computed in
       Isaac Gym so as long as you're only using it there it's irrelevant -->
  
  <link name="drill">
    <visual>
      <origin xyz="0.0 0.0 0.0"/>
      <geometry>
        <mesh filename="drill_textured.obj"/>
      </geometry>
    </visual>
    <collision>
      <origin xyz="0.0 0.0 0.0"/>
      <geometry>
        <mesh filename="drill.stl"/>
      </geometry>
    </collision>
    <inertial>
      <mass value="0.875"/>
      <inertia ixx="0.1" ixy="0.0" ixz="0.0" iyy="0.1" iyz="0.0" izz="0.1"/>
    </inertial>
  </link>
</robot>
